…
Next we create a data frame 'data' by subsetting from the data frame 'gss'. The new data frame:

1.  Contains the columns race and marital from the original data set.

2.  Contains rows in which race is either White or Black and marital status is Married, Widowed, Separated, Divorced.

``` r
data<-filter(select(gss, race, marital), race %in% c("White", "Black"), marital %in% c("Married","Widowed","Separated","Divorced"))
```

``` r
data
```

    ## # A tibble: 43,426 x 2
    ##    race  marital 
    ##    <fct> <fct>   
    ##  1 White Married 
    ##  2 White Married 
    ##  3 White Married 
    ##  4 White Married 
    ##  5 White Divorced
    ##  6 Black Married 
    ##  7 Black Married 
    ##  8 Black Married 
    ##  9 Black Married 
    ## 10 Black Divorced
    ## # ... with 43,416 more rows
…
``` r
status<-as.factor(ifelse(data$marital %in% c("Married","Widowed","Separated"),"Not Divorced", "Divorced"))
```

Finally we add a new variable named status to data wihich has exactly two factor levels Divorced and Not Divorced.

``` r
data<-mutate(data, status)
```

``` r
data
```

    ## # A tibble: 43,426 x 3
    ##    race  marital  status      
    ##    <fct> <fct>    <fct>       
    ##  1 White Married  Not Divorced
    ##  2 White Married  Not Divorced
    ##  3 White Married  Not Divorced
    ##  4 White Married  Not Divorced
    ##  5 White Divorced Divorced    
    ##  6 Black Married  Not Divorced
    ##  7 Black Married  Not Divorced
    ##  8 Black Married  Not Divorced
    ##  9 Black Married  Not Divorced
    ## 10 Black Divorced Divorced    
    ## # ... with 43,416 more rows
…
